localization.dialogMessage.onslaughtMessages.message1.duration|5
localization.dialogMessage.onslaughtMessages.message2.duration|5
localization.dialogMessage.contractMessages.supportWeaponsShipmentMessages.crateDestroyed.duration|3
localization.dialogMessage.contractMessages.supportWeaponsShipmentMessages.allCratesDestroyed.duration|3
localization.combotMessage.firstStrongboxPickup.duration|5
localization.combotMessage.firstStrongboxPickup.icon|ACTIVE_CHARACTER
localization.combotMessage.useZombieAntidote.duration|2
localization.combotMessage.useZombieAntidote.icon|MEDIC
game.skills.base|12
game.skills.base.0.skillId|1
game.skills.base.0.passive|true
game.skills.base.0.increaseAmount|0.035
game.skills.base.0.DELETE_diminishingAmount|0.01
game.skills.base.0.DELETE_diminishingAmountPerLevels|5
game.skills.base.0.DELETE_minimumIncreaseAmount|0.01
game.skills.base.0.diminishing|true
game.skills.base.1.skillId|2
game.skills.base.1.passive|true
game.skills.base.1.increaseAmount|0.015
game.skills.base.1.amount|0.03
game.skills.base.2.skillId|3
game.skills.base.2.passive|true
game.skills.base.2.increaseAmount|300
game.skills.base.3.skillId|4
game.skills.base.3.passive|true
game.skills.base.3.increaseAmount|0.05
game.skills.base.3.DELETE_diminishingAmount|0.01
game.skills.base.3.DELETE_diminishingAmountPerLevels|5
game.skills.base.3.DELETE_minimumIncreaseAmount|0.01
game.skills.base.3.diminishing|false
game.skills.base.3.amount|0.10
game.skills.base.4.skillId|5
game.skills.base.4.passive|true
game.skills.base.4.increaseAmount|2.5
game.skills.base.4.duration|1
game.skills.base.5.skillId|6
game.skills.base.5.passive|true
game.skills.base.5.increaseAmount|0.125
game.skills.base.6.skillId|7
game.skills.base.6.passive|true
game.skills.base.6.increaseAmount|0.07
game.skills.base.7.skillId|8
game.skills.base.7.passive|true
game.skills.base.7.increaseAmount|10
game.skills.base.8.skillId|9
game.skills.base.8.passive|true
game.skills.base.8.increaseAmount|0.25
game.skills.base.9.skillId|10
game.skills.base.9.passive|true
game.skills.base.9.increaseAmount|0.15
game.skills.base.9.maxAmount|100
game.skills.base.10.skillId|11
game.skills.base.10.passive|true
game.skills.base.10.increaseAmount|0.15
game.skills.base.11.skillId|12
game.skills.base.11.passive|true
game.skills.base.11.chance|0.04
game.skills.base.11.increaseChance|0.005
game.skills.base.11.amount|1.05
game.skills.base.11.increaseAmount|0.04
game.skills.heavy|7
game.skills.heavy.0.skillId|20
game.skills.heavy.0.passive|false
game.skills.heavy.0.energyCost|30
game.skills.heavy.0.duration|8
game.skills.heavy.0.increaseDuration|0.8
game.skills.heavy.0.amount|0.3
game.skills.heavy.0.increaseAmount|0.04
game.skills.heavy.0.cooldown|30
game.skills.heavy.1.skillId|21
game.skills.heavy.1.passive|true
game.skills.heavy.1.amount|0.10
game.skills.heavy.1.increaseAmount|0.0375
game.skills.heavy.1.maxAmount|1
game.skills.heavy.2.skillId|22
game.skills.heavy.2.passive|true
game.skills.heavy.2.amount|0.06
game.skills.heavy.2.increaseAmount|0.02
game.skills.heavy.3.skillId|23
game.skills.heavy.3.passive|false
game.skills.heavy.3.energyCost|40
game.skills.heavy.3.energyCostReductionPerSkillPoint|0.25
game.skills.heavy.3.minEnergyCost|20
game.skills.heavy.3.duration|4
game.skills.heavy.3.increaseDuration|0.25
game.skills.heavy.3.cooldown|50
game.skills.heavy.3.amount|0.9
game.skills.heavy.3.increaseAmount|0
game.skills.heavy.4.skillId|24
game.skills.heavy.4.passive|true
game.skills.heavy.4.amount|0.5
game.skills.heavy.4.increaseAmount|0.2
game.skills.heavy.4.damage|30
game.skills.heavy.4.increaseDamage|30
game.skills.heavy.5.skillId|25
game.skills.heavy.5.passive|true
game.skills.heavy.5.amount|0.05
game.skills.heavy.5.increaseAmount|0.005
game.skills.heavy.5.duration|0.5
game.skills.heavy.5.increaseDuration|0.05
game.skills.heavy.6.skillId|26
game.skills.heavy.6.passive|false
game.skills.heavy.6.energyCost|60
game.skills.heavy.6.amount|6
game.skills.heavy.6.increaseAmount|1
game.skills.heavy.6.increaseAmountPerLevels|3
game.skills.heavy.6.damage|2000
game.skills.heavy.6.increaseDamage|1250
game.skills.heavy.6.radius|4
game.skills.heavy.6.cooldown|65
game.skills.heavy.6.unlockLevel|20
game.enemy.zombieAttributes|// Percentage increase of bass stats E.g. 1.35 is 35% increase, 0.50 is 50% decrease
game.enemy.zombieAttributes.zombie|// Base Attributes + [Num] // Not additive ontop of prior tiers, manually set each type individually
game.enemy.zombieAttributes.zombie.health.healthIncreaseEliteZombie|3.00
game.enemy.zombieAttributes.zombie.health.healthIncreaseNightmareZombie|6.00
game.enemy.zombieAttributes.zombie.health.healthIncreaseNightmareEliteZombie|9.00
game.enemy.zombieAttributes.zombie.meleeDamage.damageIncreaseEliteZombie|1.50
game.enemy.zombieAttributes.zombie.meleeDamage.damageIncreaseNightmareZombie|3.50
game.enemy.zombieAttributes.zombie.meleeDamage.damageIncreaseNightmareEliteZombie|6.50
game.enemy.zombieAttributes.zombie.rangedDamage.rangedDamageIncreaseEliteZombie|1.50
game.enemy.zombieAttributes.zombie.rangedDamage.rangedDamageIncreaseNightmareZombie|3.50
game.enemy.zombieAttributes.zombie.rangedDamage.rangedDamageIncreaseNightmareEliteZombie|6.50
game.enemy.zombieAttributes.zombie.speed.speedIncreaseEliteZombie|1.00
game.enemy.zombieAttributes.zombie.speed.speedIncreaseNightmareZombie|1.20
game.enemy.zombieAttributes.zombie.speed.speedIncreaseNightmareEliteZombie|1.20
game.enemy.zombieAttributes.boss.health|// Base Attributes + [Num] // Not additive ontop of prior tiers, manually set each type individually
game.enemy.zombieAttributes.boss.health.healthIncreaseEliteBoss|1.50
game.enemy.zombieAttributes.boss.health.healthIncreaseNightmareBoss|1.50
game.enemy.zombieAttributes.boss.health.healthIncreaseNightmareEliteBoss|1.50
game.enemy.zombieAttributes.boss.meleeDamage.damageIncreaseEliteBoss|1.50
game.enemy.zombieAttributes.boss.meleeDamage.damageIncreaseNightmareBoss|2.0
game.enemy.zombieAttributes.boss.meleeDamage.damageIncreaseNightmareEliteBoss|2.0
game.enemy.zombieAttributes.boss.rangedDamage.rangedDamageIncreaseEliteBoss|1.25
game.enemy.zombieAttributes.boss.rangedDamage.rangedDamageIncreaseNightmareBoss|1.50
game.enemy.zombieAttributes.boss.rangedDamage.rangedDamageIncreaseNightmareEliteBoss|1.50
game.enemy.zombieAttributes.boss.speed.speedIncreaseEliteBoss|1.15
game.enemy.zombieAttributes.boss.speed.speedIncreaseNightmareBoss|1.60
game.enemy.zombieAttributes.boss.speed.speedIncreaseNightmareEliteBoss|1.60
game.loot.rollDropRates.boss.cash|0
game.loot.rollDropRates.boss.consumable|0
game.loot.rollDropRates.boss.strongbox|1
game.loot.rollDropRates.boss.dropClassId|3
game.loot.rollDropRates.area.cash|0.35
game.loot.rollDropRates.area.consumable|0.50
game.loot.rollDropRates.area.strongbox|0.15
game.loot.rollDropRates.area.dropClassId|4
game.loot.claimStrongbox.weaponAugTypePool.damage|0.1
game.loot.claimStrongbox.weaponAugTypePool.pierce|0.2
game.loot.claimStrongbox.weaponAugTypePool.range|0.28
game.loot.claimStrongbox.weaponAugTypePool.aoe|0.36
game.loot.claimStrongbox.weaponAugTypePool.spread|0.44
game.loot.claimStrongbox.weaponAugTypePool.rate|0.52
game.loot.claimStrongbox.weaponAugTypePool.damageOverTime|0.60
game.loot.claimStrongbox.weaponAugTypePool.clip|0.68
game.loot.claimStrongbox.weaponAugTypePool.reloadTime|0.76
game.loot.claimStrongbox.weaponAugTypePool.movementScale|0.84
game.loot.claimStrongbox.weaponAugTypePool.projectileSpeed|0.92
game.loot.rollConsumableRates.fragGrenade|0.25
game.loot.rollConsumableRates.cryoGrenade|0.38
game.loot.rollConsumableRates.premiumAmmo|0.54
game.loot.rollConsumableRates.medpack|0.68
game.loot.rollConsumableRates.machineGunTurret|0.75
game.loot.rollConsumableRates.cryoTurret|0.82
game.loot.rollConsumableRates.heavyShotTurret|0.88
game.loot.rollConsumableRates.missleTurret|0.93
game.loot.rollConsumableRates.flameTurret|0.96
game.loot.rollConsumableRates.zeusTurret|0.98
game.loot.rollConsumableRates.plasmaTurret|1.00
game.liveOps.gameModes.0.balance.difficultyPerSecondHaveVirus|0.40
game.liveOps.gameModes.0.balance.difficultyPerSecondNoVirus|-0.40
game.liveOps.gameModes.0.balance.difficultyChangeOnCarrierDeath|-2.0
game.liveOps.gameModes.0.balance.virusCarrierSpeedMod|0.70
game.liveOps.gameModes.0.balance.virusCarrierThreatLevel|700
game.liveOps.gameModes.0.balance.percentZombsTargetingThreat|1.0
game.liveOps.gameModes.0.balance.virusCarrierRespawnTime|12
game.liveOps.gameModes.0.balance.nonVirusCarrierRespawnTime|6
game.liveOps.gameModes.0.balance.enemyDistribution|// Distribution of each type of enemy relative to other enemies
game.liveOps.gameModes.0.balance.enemyDistribution.shamblers|15
game.liveOps.gameModes.0.balance.enemyDistribution.stalkers|10
game.liveOps.gameModes.0.balance.enemyDistribution.spitters|8
game.liveOps.gameModes.0.balance.enemyDistribution.runners|12
game.liveOps.gameModes.0.balance.enemyDistribution.bloaters|1
game.liveOps.gameModes.0.balance.enemyDistribution.shielders|1
game.liveOps.gameModes.0.balance.enemyDistribution.worms|2
game.liveOps.gameModes.0.balance.virusExplosionRadiusMetres|8
game.liveOps.gameModes.0.balance.virusThrownDistanceMetres|4
game.end|
